{"id":"25",
"name":"Barcelona",
"reg":"1108",
"idKingdom":"9",
"portFlag":"0",
"points":"130",
"fortressFlag":"0",
"starvation":0,
"buildings":{
	"id":0,
	"state":0
},
"wall":{"id":0},
"storage":[99,5,0,0,0,0,0,0,0,19,15,0,0,68,0,0,0,0,0,0,0,0,0,0,0,0,0,0,0,0,0,0],
"houseSpace":5,
"storageSpace":500,
"tradeBonus":0,
"upkeepBonus":0,
"crosses":0,
"stars":615,
"attitude":55.3548,
"expectedAttitude":59.6093,
"upkeep":900,
"eliteStudyCost":0,
"incom":2600,
"efficiency":0,
"units":{
	"unemployed":[],
	"peasants":[["223"],["338"],["74"],["539"],[]],
	"townsman":[[],[],[],[],[],[],[],[],[],[],[],[],[],[],[],[],[],[],[],[]]
}}
